<?xml version="1.0" encoding="UTF-8" standalone="no"?>
<!DOCTYPE svg PUBLIC "-//W3C//DTD SVG 1.1//EN" "http://www.w3.org/Graphics/SVG/1.1/DTD/svg11.dtd">
<svg width="100%" height="100%" viewBox="0 0 50 50" version="1.1" xmlns="http://www.w3.org/2000/svg" xmlns:xlink="http://www.w3.org/1999/xlink" xml:space="preserve" style="fill-rule:evenodd;clip-rule:evenodd;stroke-linejoin:round;stroke-miterlimit:1.41421;">
    <g transform="matrix(1.00004,0,0,1.00004,-1425.82,-835.448)">
        <path d="M1463.36,855.378C1463.37,855.646 1463.38,855.919 1463.38,856.192C1463.38,864.517 1457.04,874.118 1445.45,874.118C1441.89,874.118 1438.58,873.073 1435.79,871.288C1436.28,871.347 1436.79,871.372 1437.3,871.372C1440.25,871.372 1442.96,870.366 1445.12,868.677C1442.36,868.626 1440.04,866.804 1439.24,864.304C1439.62,864.376 1440.01,864.415 1440.42,864.415C1441,864.415 1441.55,864.337 1442.08,864.194C1439.19,863.616 1437.03,861.066 1437.03,858.019L1437.03,857.937C1437.88,858.409 1438.85,858.692 1439.88,858.726C1438.19,857.593 1437.08,855.667 1437.08,853.483C1437.08,852.327 1437.39,851.245 1437.93,850.315C1441.04,854.126 1445.68,856.634 1450.92,856.898C1450.81,856.433 1450.75,855.954 1450.75,855.458C1450.75,851.98 1453.58,849.161 1457.05,849.161C1458.87,849.161 1460.5,849.925 1461.65,851.148C1463.09,850.868 1464.44,850.343 1465.65,849.622C1465.18,851.093 1464.18,852.327 1462.88,853.107C1464.16,852.954 1465.37,852.614 1466.5,852.114C1465.66,853.376 1464.59,854.489 1463.36,855.378M1450.76,835.415C1436.96,835.415 1425.76,846.61 1425.76,860.415C1425.76,874.224 1436.96,885.415 1450.76,885.415C1464.57,885.415 1475.76,874.224 1475.76,860.415C1475.76,846.61 1464.57,835.415 1450.76,835.415" style="fill:rgb(102,102,102);fill-rule:nonzero;"/>
    </g>
</svg>
