<?xml version="1.0" encoding="UTF-8" standalone="no"?>
<!DOCTYPE svg PUBLIC "-//W3C//DTD SVG 1.1//EN" "http://www.w3.org/Graphics/SVG/1.1/DTD/svg11.dtd">
<svg width="100%" height="100%" viewBox="0 0 25 40" version="1.1" xmlns="http://www.w3.org/2000/svg" xmlns:xlink="http://www.w3.org/1999/xlink" xml:space="preserve" style="fill-rule:evenodd;clip-rule:evenodd;stroke-linejoin:round;stroke-miterlimit:1.41421;">
    <g transform="matrix(0.722251,0,0,0.722251,-1054.12,-442.719)">
        <path d="M1476.8,639.831C1471.64,639.831 1467.45,635.646 1467.45,630.486C1467.45,625.326 1471.64,621.14 1476.8,621.14C1481.96,621.14 1486.15,625.326 1486.15,630.486C1486.15,635.646 1481.96,639.831 1476.8,639.831M1476.8,612.971C1467.24,612.971 1459.49,620.72 1459.49,630.277C1459.49,646.804 1476.8,668.354 1476.8,668.354C1476.8,668.354 1494.11,646.804 1494.11,630.277C1494.11,620.72 1486.36,612.971 1476.8,612.971" style="fill:rgb(48,48,48);fill-rule:nonzero;"/>
    </g>
</svg>
